;Revamped by Pink Gold Peach.

#SPC
{
	#title "Ashen Snowfall"
	#author "Jimmy"
	#comment "Fire/Ice Level 2"
	#game "SMW Central Production 2"
}

#samples
{
	#default
	"JingleB.brr"
}
#instruments
{
"JingleB.brr" $FF $F6 $00 $05 $40           ;@30
@0 $DF $BA $00 $06 $00                      ;@31
@14 $FF $F0 $00 $07 $00                     ;@32
@13 $DC $A4 $00 $03 $00                     ;@33
@1 $DB $B1 $00 $03 $00                      ;@34
@6 $8D $F0 $00 $03 $00                      ;@35
}


$EF $FF $28 $28	;\
$F1 $05 $A0 $00	;/ Echo.

#0 v205 w180 t71 

o3
[r2]30
(10)[y15$DC$A0$05f16d16g16f16a16g16>c16<a16>d16c16c16d16d16c16e16d16]1
/
@31
v205
[r2]14
y5$DC$A0$0Ea16>c+16<g16a16f16g16e16f16d16e16c+16d16d16c+16e16d16
[r2]14
(10)1
(101)[@33
$DE $2E $06 $40
$EA $30]1	; Load strings sample.
v200 y9
f1^1^1^1
a1^1
>
c+16r16c+8r8c+16r16c+8r8c+16r16(11)[c+8
r8c+16r16c+8r16c+16c+4c+4]1r2^4^8
(11)1
@31
v205
y15
$DC$C0$05<<d16<a16>d16f16d16f16a16f16a16>d16<a16>d16f16d16f16a16
$DC$C0$0Ef16d16f16d16<a16>d16<a16f16a16f16d16f16d16<a16>d16<a16
$DC$C0$05g16e16g16>c16<g16>c16e16c16e16g16e16g16>c16<g16>c16e16
$DC$C0$0Ec16<g16>c16<g16e16g16e16c16e16c16<g16>c16<g16e16g16e16
$DC$C0$05f16d16f16a+16f16a+16>d16<a+16>d16f16d16f16a+16f16a+16>d16
$DC$C0$0E<a+16f16a+16f16d16f16d16<a+16>d16<a+16f16a+16f16d16f16d16
$DC$C0$05e16c16e16g16e16g16>c16<g16>c16e16c16e16g16e16g16>c16
$DC$C0$0E<g16e16g16e16c+16e16c+16<g16>c+16<g16e16g16e16c+16e16c+16r1^2
@9 y11

v230
>a4>d4
f4g8e2^8
r2{e4d4c4}
d2^8r4<a+8
f2{>d4c4<a+4}
>c2^8r8<a+8g8
a2^8r8f8g8
a4f8d2^8
{[a4]4>c4d4}
f4e8c2^8
{[e4]4g4e4}
f4g8a2^8
r1
e4g8a2^8
{a4a4a+4}a4g4
@33
v200
>d1^1^1^1
c+1^1
d1^1
[r2]16

#1 

<[r2]32
/v240 y10
(200)[@34
$DE $2E $06 $40
$EA $30]1	; Load marimba sample.
d16f16(20)[a2^4a+8
a4g4a4g4]1
a16g16(21)[f2^4d8
a+4>c4<a4g4]1
f16a16>(22)[d2^4e8
f4e4f4g4
a16r16a8r8a16r16a8r8a+16r16]1(23)[a8r8
g16r16a8r16g16a+4g4]1
[r8]65
@33 y11

o4
v230
(20)1
r8(21)1
r8>(22)1(23)1r2^4^8
(23)1
r16g16f2^8d8f4
a4g4f4^8
r16e16c2^8e8g4
a+2^8a8g8
r8f8d2f8a4
a4a+4^8a8g8
g8c8g8>c4<g8>c8d+8
e8c8e8g2f16e16
f1^1
@9 y9
v230
o4
d4e8c2^8
r2{c4<a4g4}
a+2^8r4g8
d2{a+4g4f4}
g2^8r8f8d8
e2^8r8d8e8
r1
{[f4]4g4a4}
>d4c8<g2^8
{>[c4]4e4c4}
d4e8f2^8
r1
c4e8f2^8
{e4e4f4}e4c+4
@33

v230
>
(24)[f2^8e8f8g8
f2^8e8f8g8
a2^8f8a8a+8
a1
a2^8f8a8a+8
a4^8g4^8e4
f8e8d2^4
f4^8e2^8]1
(200)1 	; Load marimba sample.
v240y10
(24)1

#2 v130 y10
@35

o4
[r2]16
(30)[d8d4d8d4d8d4
d8d4d8d8d4]1
(31)[<a+8a+4a+8a+4a+8a+4
a+8a+4a+8a+8a+4]1
(30)1
(31)1
/y10
(30)1
(31)1
(30)1
(32)[a8a4a8a4a8a4
a8a4a8a8a4]1
(30)1
(31)1
(30)1
(31)1
(30)1
(31)1
(30)1
(32)2
(101)1	; Load strings sample.
v200
o5y9
a1^1
g1^1
a1^1^1^1^1^1
n10
v80$ED$71$EB
y7c1^1^1^1
y13n12c1^1^1^1
y10n14 c1^1^1^1
@35
v130
<c1
c+1
(30)1
(31)1
(32)1
(33)[d8d4d8d4d8d4
d8d4c+8c+8c+4]1
(30)1
(31)1
(32)1
(33)1

#3 v130 y8
@35

o4
[r2]16
(40)[a8a4a8a4a+8a4
g8a4a8a8g4]1
(41)[f8f4f8f4a8f4
e8f4f8f8g4]1
(40)1
(41)1
/y8
(40)1
(41)1
(40)1
(42)[e8e4e8e4a8e4
d8e4e8e8g4]1
[[(40)1
(41)1]]3
(40)1
(42)2
[r4]85
(101)1	; Load strings sample.
v215
>f8d2^8r1^4
e8c+2^8<
@35
v130
(40)1
(41)1
(42)1
(43)[a8a4a8a4a+8a4
g8a4a8a8a4]1
(40)1
(41)1
(42)1
(43)1

#7 v130 y12
@35

o4
[r2]16
(50)[f8f4f8f4f8f4
f8f4f8f8f4]1
(51)[d8d4d8d4d8d4
d8d4d8d8d4]1
(50)1
(51)1
/y12
(50)1
(51)1
(50)1
(52)[c+8c+4c+8c+4c+8c+4
c+8c+4c+8c+8c+4]1
(50)1
(51)1
(50)1
(51)1
o4 y11
(80)[@30  
v150c8v120c16v100c16
v150c8v120c16v100c16
v150c8v120c16v100c16
v150c8v140c8]8
@35 y12
v130 o4
(52)1
[r2]44
e1
g1
(50)1
(51)1
(52)1
(53)[f8f4f8f4f8f4
f8f4e8e8e4]1
(50)1
(51)1
(52)1
(53)1

#5 v240 y10
@32

r1^1^1^2
o2d8d16d16c8c8
(60)[d16r16d16r16d4d16r16d16r16d4
d16r16d16r16d4d8d16d16c8c8]3
(61)[<a+16r16a+16r16a+4a+16r16a+16r16a+4
a+16r16a+16r16a+4a+8a+16a+16a8>c8]1
(60)1
(61)1
/
(60)1
(61)1
(60)1
(62)[<a16r16a16r16a4a16r16a16r16a4
a16r16a16r16a4a8a16a16a8>c8]1
(60)1
(61)1
(60)1
(61)1
(60)1
(61)1
(60)1
(62)1
(63)[<a16r16a16r16a4a16r16a16r16a4
a16r16a16r16a4a8a16a16a8>c+8]1
d2d4^8f8r8
d8f8r8d8d8f4
c2c4^8e8r8
c8e8r8c8c8e4
<a+2a+4^8>d8r8
<a+8>d8r8<a+8a+8>d8f8
c8r8c8r8c8c8e8g8
c+8r8c+8r8c+8c+8e8a8
[d4^8d4^8f8a8
d4^8d4^8f8a8
c4^8c4^8e8g8
c4^8c4^8e8g8
<a+4^8a+4^8>d8f8
<a+4^8a+4^8>d8f8
c4^8c4^8e8g8
<a4^8a4^8>c8e8]2
(60)1
(61)1
(62)1
(64)[d2d2
d8r8d8r8c+8c+8c+4]1
(60)1
(61)1
(62)1
(64)1

#4  y11
@30o4
v150c8v120c16v100c16v150c2c8c8
c4c4c8v120c16v100c16v150c8c8
(80)14
/
(80)16
@33

y10
v200
o4
d1^1
a1^1
f1^1
>e16r16e8r8e16r16e8r8e16r16(84)[e8r8
e16r16e8r16e16e4e4]1
r2^4^8(84)1
[r2]42
@33

y12
v215
o5a1r1
g1
y11(80)16

#6 v255 y10

r1^1
o3
(70)[ @26  c4  @26  c4
      @29  c2
      @26  c8  @26  c16  @26  c16  @26  c8  @26  c8
      @29  c2]7
/
(70)13
(71)[ @26  c4  @26  c4
      @29  c2
      @26  c8  @26  c16  @26  c16  @26  c8  @26  c8
      @29  c=42  @26  c32  @29  c8  @29  c8]8
(70)16                

#amk=1