;Composed by CrispyYoshi
;Revision 1.0

#SPC
{
	#title "Electrospire"
	#author "CrispyYoshi"
	#comment "Abstract/Dream Level 2"
	#game "SMW Central Production 2"
}

#samples
{
	#default
	#AMM
	#sky_and_dream
}

;s04_10_11_12_13_14_15_16_17_18_19_1A_1B_1C_1D_1E_1F_FF
#0t55w160 $F0
r4/o4@9 $ED $0A $D4 y11 v245 p7,21 (1)[e8e8r8e8e8e8r8e8 g+8g+8r8g+8g+8g+8r8g+8 e8e8r8e8e8e8r8e8 d+8d+8r8d+8d+8d+8r8d+8]  r4d+4e4d+4  (1)4 (2)[g+8g+16g+8^16g+8b8b16b8^16b8 b8b16b8^16b8b8b16b8^16b8]4 (1)4 (2)4
#1
r4/o3@9 $ED $0A $D4 y11 v245 p7,21(3)[g+8g+8r8g+8g+8g+8r8g+8 b8b8r8b8b8b8r8b8 a8a8r8a8a8a8r8a8 a8a8r8a8a8a8r8a8] r4<b4>f+4b4 (3)4> (4)[c+8c+16c+8^16c+8e8e16e8^16e8 f+8f+16f+8^16f+8g+8g+16g+8^16g+8]4 (3)4 (4)4
r1
#2y10
r4/@13 (5)[o4c+16<g+16>e16c+16g+16e16c+16>c+16<g+16e16>e16c+16<g+16>e16c+16>c+16]4 r1 *16 o4 (6)[>e16c+16e16g+16e16c+16g+16c+16f+16<b16g+16>f+16<b16g+16>d+16<b16]4 (7)[>g+16e16c+16<g+16>e16c+16g+16^16g+16e16c+16<g+16>e16c+16g+16e16 g+16e16c+16<g+16>e16c+16g+16^16g+16e16f+16g+16{f+32g+32f+32}e16d+16<b16]2  (5)16 (6)4 (7)2r1
#3y8
r4/r1^1^1^1^2^4o4  @6 $ED $3A $D1 v255
b8>c8
c+8^=4{<b32g+32f+32e32c+32}^2d+4
e2^8e32r16^32f+16g+8^16
f+2^8e16d+16c+8<g+16
b16>e2^16r16e8d+8<b8
g+4>c+4g+8^16 {g+32a+32b32}>c+4
d+8^16c+4c+16<b8>c+16<g+8f+16g+16
>c+16f+32g+16^32b32r16^32g+8f+16g+4^8^16<b8
b32>c+4^32e16d+16c+4^8^16<b8

>c+8^=4{<b32g+32f+32e32c+32}^2d+4
e2^8e32r16^32f+16g+8^16
f+2^8e16d+16c+8
<g+16b16>e2^16r16e8f+8
g+8c+4c+4g+8^16{g+32a+32b32}>c+4
d+8^16e8^16c+16<b16>c+8c+8d+8
e8f+32r16^32f+8e8c+16d+16e8c+16d+16e16
d+16c+16<b16g+8^16>d+8^16

c+2^16^32
r1^2^4^8^32
o3b16>c16c+16<g+16>g+16c+16f+16g+16f+16c+2^8^16
r2^4
<b16>c16c+16<g+16>g+16c+16f+16g+16f+16c+1^4^8^16
r1^1^4^8

@0
c+16<b16>c+16r16<
{b8>c+8d+8e8d+8<b8}
f+8^16b8^16>f+8^16
e8^16d+8<g+8g+16f+16g+2^4^8
r1^4
>c+16<b16>c+32r16^32<
{b8>c+8d+8e8d+8<b8}>e32f+8^32g+8^16
e8^16d+8^16c+16d+16e16f+16g+32r16^32>c+16<g+16r8
f+4e8d+8e8a32b16^32g+16b8^16
b32>c+16^32
{d+16<g+16e16d+16c+16<b16g+16f+16e16d+16c+16<b16}

@4 $ED $0A $D4 y10 v170
o5r8e8e8r8c+8e8e8r8f+8
f+8r8e8f+8g+8f+8e8r8
e8e8r8c+8e8e8r8f+8
f+8r8f+8g+8e8>c+8<b8r8
e8e8r8c+8e8e8r8f+8
f+8r8e8f+8g+8f+8e8r8
e8e8r8c+8e8e8r8f+8
f+8r8f+8g+8e8>c+8<b8<

o4 v180 @4
[b1f+2e2r2>c+1<g+2]2
r1

#7
r4/r1^1^1^1^1o4 @6 $ED $3A $D1 v145 y12
b8>c8
c+8^=4{<b32g+32f+32e32c+32}^2d+4
e2^8e32r16^32f+16g+8^16
f+2^8e16d+16c+8<g+16
b16>e2^16r16e8d+8<b8
g+4>c+4g+8^16 {g+32a+32b32}>c+4
d+8^16c+4c+16<b8>c+16<g+8f+16g+16
>c+16f+32g+16^32b32r16^32g+8f+16g+4^8^16<b8
b32>c+4^32e16d+16c+4^8^16<b8

>c+8^=4{<b32g+32f+32e32c+32}^2d+4
e2^8e32r16^32f+16g+8^16
f+2^8e16d+16c+8
<g+16b16>e2^16r16e8f+8
g+8c+4c+4g+8^16{g+32a+32b32}>c+4
d+8^16e8^16c+16<b16>c+8c+8d+8
e8f+32r16^32f+8e8c+16d+16e8c+16d+16e16
d+16c+16<b16g+8^16>d+8^16

c+2^16^32
r1^2^4^8^32
o3b16>c16c+16<g+16>g+16c+16f+16g+16f+16c+2^8^16
r2^4
<b16>c16c+16<g+16>g+16c+16f+16g+16f+16c+1^4^8^16
r1^1^4^8

@0 v145
c+16<b16>c+16r16<
{b8>c+8d+8e8d+8<b8}
f+8^16b8^16>f+8^16
e8^16d+8<g+8g+16f+16g+2^4^8
r1^4
>c+16<b16>c+32r16^32<
{b8>c+8d+8e8d+8<b8}>e32f+8^32g+8^16
e8^16d+8^16c+16d+16e16f+16g+32r16^32>c+16<g+16r8
f+4e8d+8e8a32b16^32g+16b8^16
b32>c+16^32
{d+16<g+16e16d+16c+16<b16g+16f+16e16}

@4 $ED $0A $D4 y10 v170
o4b8b8r8g+8b8g+8r8
>c+8c+8r8<a8>c+8<a8f+8g+8
r8b8b8r8g+8b8g+8r8
b8b8r8f+8b8f+8d+8e8
r8b8b8r8g+8b8g+8r8
>c+8c+8r8<a8>c+8<a8f+8g+8
r8b8b8r8g+8b8g+8r8
b8b8r8f+8b8f+8d+8e8

o5 v185 @4
[r2
c+1<b2
b2>e2
d+2]1c+2*
c+4<b4

r1
#5y8v255
o4@12 {d16d16d16}<b16g16/  o3@21 c4 @21 c4 @29 a16 @21 c8 @21 c8 @21 c16 @29 a8
  @21 c16 @21 c16 @29 a8 @29 a16 @21 c8 @29 a16 @21 c8 @21 c16 @21 c16 @29 a16 @29 a16 @21 c8  
  @21 c4 @29 a16 @21 c8 @29 a16 @21 c8 @29 a16 @21 c8 @21 c16 @29 a16 @21 c16 
 @21 c4 @29 a16 @21 c8 @29 a16 @21 c8 @21 c16 @21 c16 q7a @29 a16 q7b @29 a16 q7d @29 a16 q7f @29 a16
 r2 @21 c8 @21 c16 @21 c16 @29 a8 @29 a16 @29 a16
 
 (8)[@21 f4 @29 a4]30
 
 (9)[@21 c8^16 @29 a8^16 @21 c8 @29 a16 @29 a16 @21 c8 @12 o4{d16d16d16}<b16g16 o3]
 (10)[@21 c16 @21 c16r8 @29 a4 @21 c16r8^16 @29 a4]7
 (11)[@21 c16 @21 c16r8 @29 a4 @21 c16r8^16 @12 {d16d16d16}<b16g16]
 (8)30
 (9)
 (10)7
 (11)

r1
#6
r4/o4@2 $ED $0A $D0 y11 v215 p7,21
l1
[c+ef+g+]
r1*4
[c+2e2f+2g+2]4
@17o2v247
r4e4g+4e4
b32>c+4^16r32c+32<b4^16r32b32f+8^16^32
f+4g+4b4g+4
>e32f+8^16^32e8d+4<b8f+8b8
r4e4g+4e4
b32>c+4^16r32c+32<b4^16r32b32f+8^16^32
f+4g+4b4g+4
>e32f+8^16^32e8d+4<b8f+8b8
@1o5
[c+16 ^16 $DD $00 $01 $B8 c+16 ^16 $DD $00 $01 $C2]32
[r1]3r=168
@17
o2b16>c16
[o3c+16<g+16o4c+16<c+16b16<g+16o4c+16o2c+8c+16o4c+16o2g+16>c+16<g+16c+16<b16]4
r1
#4y8
v0c4/v255 @22
o3
 @22 f+16 @22 f+16 @23 a+8 @22  @22 f+4  @22  @22 f+4  @22  @22 f+4 
 @22 f+8 @22 f+16 @23 a+16 @22  @22 f+4  @22  @22 f+4  @22  @22 f+4 
 @22 f+16 @22 f+16 @23 a+8 @22  @22 f+4  @22  @22 f+4  @22  @22 f+4 
 @22 f+16 @22 f+16 @23 a+8 @22  @22 f+4  @22 f+8 @22 f+16 @22 f+16 q7a @23 a+16 q7b @23 a+16 q7d @23 a+16 q7f @23 a+16
r1
(12)[ @22 f+8 @22 f+16 @22 f+16 @23 a+16 @23 a+16 @22  @22 f+16 @22 f+16 @22 f+8 @22 f+16 @22 f+16a+4
 @22 f+8 @22 f+16 @22 f+16 @23 a+8 @22  @22 f+16 @22 f+16 @22 f+8 @22 f+16 @22 f+16 @23 a+16 @23 a+16 @22  @22 f+16 @22 f+16]8
(13)[r8 @23 a+8 @22 r8 @23 a+8 @22 r16 @23 a+16 @22  @22 f+8r16 @23 a+16 @22  @22 f+8]7
(14)[r8 @23 a+8 @22 r8 @23 a+8 @22 r16 @23 a+16 @22  @22 f+8 @23 a+16 @23 a+16 @22  @23 a+16 @23 a+16 @22 ]
(12)8
(13)7
(14)
r1                

#amk=1
