#SPC
{
	#author "Jimmy"
	#comment "Abstract/Dream Level 4"
	#game "SMW Central Production 2"
}

#samples
{
	#default
	#AMM
	#sky_and_dream
}

#0 w160 t68

$EF $BD $3F $3F
$F1 $06 $A0 $00

#0 v000

o3
[c1]4
/
(10)[@23
     y06
     $ED $7F $10
     v000
     {c64}
     v240
     c=22
     v120
     c16
     v180
     c16
     v240
     c8
     v120
     c16
     v180
     c16
     v240
     c16c16
     v120
     c16
     v180
     c16]1
(11)[v000
     {c64}
     v240
     c=22
     v120
     c16
     v180
     c16]1
(10)1
(11)1
(10)1
(11)1
(10)1

@06
$ED $6F $F3
v230
y12
o4
d8f8
(12)[g8r8g+8g8r2
     g8f8d+8g8r8g+8g8r8
     d8r8d+8d8r8<g8b8>d8]1
r1^1^1

(18)[@1
     $ED $78 $E0
     v140
     y20
     $DC $C0 $0A
     $E8 $C0 $64
     o5
     b8>d8f8g8<
     b8>d8f8g8<
     $DC $C0 $00
     $E8 $C0 $32
     b8>d8f8g8<
     b8>d8f8g8<]1
@06
$ED $6F $F3
v230
y12
(12)1
o4
r2g+8g8d+8f8
(13)[g8r16g16g4g8>c8d+8c8<
     f8r16f16f4f8g+8>c8<g+8
     d+8r16d+16d+4d+8f+8a8f+8
     d8r16d16d4d8f8g+8b8]1
(12)1
r1^1^1
(18)1
@06
$ED $6F $F3
v230
y12
(12)1
o4
r2g+8g8d+8f8
(13)1
(10)1
(11)1
(10)1
(11)1
(10)1
(11)1
(10)1
(11)1
(10)1
(11)1
(10)1
(11)1
(10)1
(11)1
(10)1
(11)1
(14)[@03
     $ED $6C $D2
     v255
     y15
     o4
     g8f8d+8g8r8g+8r4
     g8f8d8g8r8g+8g8r8
     g8f8d+8g8r8>c8]1
(15)[r4
     <b8g+8g8d8r8<b8r4>]1
(14)1
(16)[>d8d+8
     d8<b8g+8g8d+8d8c8<b8]1
@06
$ED $6F $F3
v230
y12
(12)1
r1
(12)1
o5
r2c8<b8g8b8
r1^1^2.
@01
$ED $7B $E0
o5
d8f8
(17)[g2d+4]2
g4g+4g4
f2d8f8
g4f4d+4
c4<g4>d+4
d4<b4>d4
g4f4d8f8
(17)2
c4d+4f8g8
g+4g4d+8f8
>c4<g4d+4
a+4g2
d8f8g+4f4
g+4g2
(14)1
(15)1
(14)1
(16)1
[r1]4

#1 @08 v255 y10
$ED $7F $F0

r4^4^2^1^1^2
o2
b16g+16g8d8f8
/
(20)[g16r16d+16r16c16r16d+16r16g16>c16<g8c16r16d+16r16
     a+16r16g16r16d16r16g16r16a+16>d16<a+8d16r16g16r16
     d+16r16c16r16d+16r16g16r16>c16r16d+16r16c16<g16>c16d+16
     d16<b16g8d16r16g16r16g16g+16g8d+8f8]1
(21)[g16r16d+16r16c16r16d+16r16g16>c16<g8c16r16d+16r16
     g16r16d+16r16c16r16d+16r16g16>c16<g8c16r16d+16r16
     g16b16g8d16r16g16r16g16g+16g8d+8f8>
     d16<b16g8d16r16g16r16g16g+16g8d+8f8]3
(22)[c8c8c8c8g8d+8g8>c8<
     <a+8a+8a+8a+8>f8d8f8a+8<
     g+8g+8g+8g+8>c8d+8f+8a8<
     g8g8g8g8b8>d8f8g+8]1
(21)3
(22)1
(20)4
[g16r16d+16r16c16r16d+16r16g16>c16<g8c16r16d+16r16]2
g16b16g8d16r16g16r16g16g+16g8d+8f8>
d16<b16g8d16r16f16r16f16g+16f8d+8f8
(21)1
[c8r8c8r8c8g8
 <a+8r8a+8r8a+8>f8
 <g+8r8g+8r8g+8>d+8
 <g8r8g8r8b8>g8]5
(20)2
[r1]4

#2

[r1]4
/
(30)[@00
     $ED $6F $B4
     v170
     y08
     o3
     c8<g8>c8d8d+8c8d+8g8
     d8<a+8>d8f8g8a+8>d8<a+8
     g8d+8g8a+8>c8<g8>c8d+8
     <b8g8b8>d8g8b8>d8<b8]1
(31)[@00
     $ED $6F $B4
     v170
     y08
     c8<g8>c8d+8c16<g+16g8>c8d+8
     c8<g8>c8d+8g16g+16g8<b8>d8
     <b8g8b8>d8<b16g+16g8b8>d8
     <b8g8b8>d8f16g+16g8d+8f8]1
[r1]4
(10)1
(11)1
(10)1
(11)1
(10)1
(11)1
(10)1
(11)1
(32)[@1
     $ED $78 $E0
     v140
     y10
     o6
     r2d+16c16<g8>d+16c16<g8>
     r2c16<g+16f8>c16<g+16f8>
     r2c16<a16f+8>c16<a16f+8
     r2b16g+16f8b16g+16f8]1
(31)1
[r1]8
(32)1
(30)1
(33)[@1
     $ED $78 $E0
     v140
     y20
     $DC $C0 $00
     o6
     c16<g16d+16c16g16d+16c16<g16>d+16c16<g16d+16>c16<g16d+16c16]1
(34)[o6 y20 $DC $C0 $00
     d16<a+16g16d16a+16g16d16<a+16>g16d16<a+16g16>d16<a+16g16d16]1
(33)1
(35)[o5 y20 $DC $C0 $00
     b16g16d16<b16>g16d16<b16g16>d16<b16g16d16b16g16d16<b16]1
(33)1
(34)1
(33)1
(35)1
(33)1
(34)1
(33)1
(35)1
(36)[o4 y00 $DC $C0 $14
     c16<g16>c16d+16g16d+16g16>c16d+16c16d+16g16>c16<g16>c16d+16
     $DC $C0 $00
     g16d+16c16<g16>c16<g16d+16c16d+16c16<g16d+16g16d+16c16<g16]1
(37)[$DC $C0 $14
     b16g16b16>d16g16d16g16b16>d16<b16>d16g16b16g16b16>d16]1
$DC $C0 $00
f16d16<b16g+16b16g+16d16<b16>d16<b16g+16d16g+16d16<b16g16
(36)1
(37)1
$DC $C0 $00 o6
f16d16<b16g16b16g16d16<b16>d16<b16g16d16g16d16<b16g16
r1^1^1
[y10
 o6
 c8<g8d+8f8g8c8
 a+8f8d8d+8f8<a+8>
 g+8d+8c8d8d+8<g+8>
 g8d8<b8>c8d8<g8>
 o6
 c8<g8d+8f8g8c8
 a+8f8d8d+8f8<a+8>
 g+8d8<b8>d8f8<g+8>
 g8d8<b8>c8d8<g8>]2
(33)1
(34)1
(33)1
(35)1
(33)1
(34)1
(33)1
(35)1
(33)1
(34)1
(33)1
(35)1

#3 @13 v160 y13
$ED $47 $60
p1,20
o5

(40)[c1d1c1<b1>]1
/
(40)1
(41)[c1d+2.d4
     <b1>d2.<b4>]3
(42)[c2d+2
     <a+2>d2
     <g+2>c2
     <g2b2>]1
(41)3
(42)1
(40)4
[c1d+2c2
 d1<b1>]2
r1^1^1
[c2.<a+2.g+2.b2.>]4
(40)3

#7 @13 v160 y13
$ED $47 $60
p1,20
o4

(50)[g1a+1g1g1]1
/
(50)1
(51)[g1>c2.<b4
     g1b2.g+4]3
(52)[g4d+4>c4<g4
     f4d4a+4f4
     d+4c4a4f+4
     d4<b4>g+4f4]1
(51)3
(52)1
(50)1
g2d+2
a+2g2
g2d+2
g2d2
(50)2
[g1>c2<g2
 b1f1]2
r1^1^1
[g2.f2.d+2.g2.
 g2.f2.d2.g2.]2
(50)3

#5 @13 v160 y13
$ED $47 $60
p1,20
o4

(60)[d+1g1d+1d1]1
/
(60)1
(61)[d+1g2.f4
     d1g2.d4]3
(62)[@06
     $ED $6F $F3
     v230
     y12
     p0,0
     o4
     d+8r16d+16d+4d+8g8>c8<g8
     d8r16d16d4d8f8g+8f8
     c8r16c16c4c8d+8f+8d+8
     <b8r16b16b4b8>d8f8g+8]1

@13 v160 y13
$ED $47 $60
p1,20

(61)3
(62)1

@13 v160 y13
$ED $47 $60
p1,20

(60)1
(30)1

@13 v160 y13
$ED $47 $60
p1,20

(60)2
[d+1g2d+2
 g1d1]2
r1^1^1
[d+2.d2.c2.d2.
 d+2.d2.<b2.>d2.]2
(60)3

#6 v255 y10

(70)[ @21  c8  @21  c8  @29  c8  @21  c8  @21  c8  @21  c8  @29  c8  @21  c8
      @21  r8c8  @29  c8  @21  c8  @21  c8  @21  c8  @29  c8  @21  c8
      @21  c8  @21  c8  @29  c8  @21  c8  @21  c8  @21  c8  @29  c8  @21  c8
      @29  r8c8  @21  c8  @21  c8  @29  c8  @21  c8  @29  c8  @21  c8]1
/
(70)4
(71)[ @21  c8  @21  c8  @29  c8  @21  c8  @21  c4  @21  c4]4
(70)3
(71)4
(70)5
(72)[ @21  c8  @21  c8  @29  c8  @21  c8  @21  c8  @21  c8  @29  c8  @21  c8]1
(73)[ @21  r8c8  @29  c8  @21  c8  @21  c8  @21  c8  @29  c8  @21  c8]1
(72)1
[ @21  c16]14  @29  c8
[ @21  c4  @29  c4  @21  c8  @29  c8]20
(72)1
(73)1
(72)1
(73)1
(72)1
(73)1
(72)1
(73)1
(72)1
(73)1
(72)1
(73)1

#4

(80)[v255 y10 @23 c8 @23 c8 $ED $7E $E0 o4 c4]8
/
(80)32
(81)[@06
     $ED $6F $F3
     v230
     y12
     o4
     c8r16c16c4r2
     <a+8r16a+16a+4r2
     g+8r16g+16g+4r2
     g8r16g16g4r2]1
(80)24
(81)1
(80)40
[r2]7
@06
$ED $6F $F3
v230
y12
o4
g+8g8d+8g8
(82)[@00
     $ED $6F $B4
     v170
     y08
     o3
     c16<g16>c16g16d+16g16>d+16c16d+16g16d+16g16
     o2
     a+16f16a+16>f16d16f16>d16<a+16>d16a+16f16a+16]1
(83)[o2
     g+16d+16g+16>d+16c16d+16>c16<g+16>c16g+16d+16g+16]1
(84)[o2
     b16f16b16>g16d16g16>d16<b16>d16b16f16b16]1
(82)1
(83)1
(84)1
(82)1
(85)[o2
     g+16d16g+16>d16<b16>d16b16g+16b16>g+16d16g+16]1
(84)1
(82)1
(83)1
(84)1
(82)1
(85)1
(84)1
[r1]12                

#amk=1
