$DA $03 $10 $15 $3F $DD $A1 $00 $10 $B7 $18 $EB $00 $18 $AD $12 
$38 $15 $DD $A8 $00 $12 $AB $0C $EB $00 $0C $9F $08 $0E $31 $DD 
$A4 $00 $08 $A8 $06 $EB $00 $06 $9C $0C $2A $0E $DD $A1 $00 $0C 
$A4 $06 $EB $00 $06 $98 $0C $07 $23 $DD $9C $00 $0C $9F $06 $EB 
$00 $06 $93 $0C $1B $04 $DD $98 $00 $0C $9C $06 $EB $00 $06 $90 
$0C $04 $18 $DD $95 $00 $0C $98 $06 $EB $00 $06 $8C $6C $00 $A5 
$15 $38 $DD $AB $00 $12 $BC