A=00
B=01
C=02
D=03
E=04
F=05
G=06
H=07
I=08
J=09
K=0A
L=0B
M=0C
N=0D
O=0E
P=0F
Q=10
R=11
S=12
T=13
U=14
V=15
W=16
X=17
Y=18
Z=19

a=40
b=41
c=42
d=43
e=44
f=45
g=46
h=47
i=48
j=49
k=4A
l=4B
m=4C
n=4D
o=4E
p=4F
q=50
r=51
s=52
t=53
u=54
v=55
w=56
x=57
y=58
z=59

!=1A
.=1B
-=1C
,=1D
?=1E
 =1F
#=5A
(=5B
)=5C
'=5D
*=5E

:=30

1=64
2=65
3=66
4=67
5=68
6=69
7=6A
0=6B
